{
  "type": "minecraft:biome",

  "feature": "mara:layer0/side_jungle",

  "placement": [
    {
      "type": "minecraft:count",
      "count": {
        "type": "minecraft:uniform",
        "max_inclusive": 60,
        "min_inclusive": 20
      }
    },
    {
      "type": "minecraft:in_square"
    },
    {
      "type": "minecraft:height_range",
      "height": {
        "type": "minecraft:uniform",
        "max_inclusive": {
          "absolute": 110
        },
        "min_inclusive": {
          "absolute": 40
        }
      }
    }
  ]
}