{
  "type": "mara:canyon_vine",
  "config": {
    "wall": "mara:replaced_by_side_trees",
    "leaves": {
      "type": "minecraft:simple_state_provider",
      "state": {
        "Name": "minecraft:oak_leaves",
        "Properties": {
          "distance": "7",
          "persistent": "true",
          "waterlogged": "false"
        }
      }
    }
  }
}